Coursework 3
…
storm_events_utc = data.frame()
#storm_events_utc <- storm_events_tz %>% mutate(UTCDateTime = NA)

for ( s in  list_of_relevant_australian_tz)
{
  #print(s)
  storm_events_utc <- rbind(storm_events_utc, storm_events_tz %>% filter(storm_events_tz$AustralianTimeZone == s) %>% mutate(UTCDateTime = (`Date/Time` %>% dmy_hm(tz = s))))
    #storm_events_utc$UTCDateTime 
  
}
storm_events_utc %>% arrange(storm_events_utc$`Event ID`)

## # A tibble: 14,417 x 15
##    `Event ID` Database `Date/Time`   `Nearest town`     State Latitude Longitude
##         <dbl> <chr>    <chr>         <chr>              <chr>    <dbl>     <dbl>
##  1      20812 Wind     23/11/1975 0~ SYDNEY             NSW      -33.9      151.
##  2      20813 Tornado  02/12/1975 1~ BARHAM             NSW      -35.6      144.
##  3      20814 Wind     09/01/1976 0~ COFF'S HARBOUR     NSW      -30.3      153.
##  4      20815 Hail     16/02/1976 1~ BANKSTOWN          NSW      -33.9      151.
##  5      20816 Rain     25/10/1976 1~ BOOMI              NSW      -28.4      153.
##  6      20817 Hail     08/11/1976 1~ YOUNG              NSW      -34.3      148.
##  7      20818 Hail     09/11/1976 1~ SYDNEY (WESTERN S~ NSW      -33.7      151 
##  8      20818 Rain     09/11/1976 1~ WESTERN SUBURBS    NSW      -33.7      151 
##  9      20819 Wind     09/11/1976 1~ SYDNEY             NSW      -33.9      151.
## 10      20820 Wind     10/11/1976 1~ MOREE/TRANGIE      NSW      -29.5      150.
## # ... with 14,407 more rows, and 8 more variables: Comments <chr>, ...10 <chr>,
## #   ...11 <chr>, ...12 <lgl>, ...13 <lgl>, ...14 <lgl>,
## #   AustralianTimeZone <chr>, UTCDateTime <dttm>
…
storm_events_utc = storm_events_utc2

#Q5. 5. Create new variables for the month and year of each event. Print the first few rows of the resultant data frame, without the 6 columns of comments and without creating an intermediate data frame.

storm_events_with_cols = storm_events_utc %>% mutate(month_storm = month(storm_events_utc$UTCDateTime), 
                                                     year_storm = year(storm_events_utc$UTCDateTime))

#...10,...11, ...12,...13, ...14, Comments
print(storm_events_with_cols[-c(8:13)])

## # A tibble: 14,417 x 11
##    `Event ID` Database `Date/Time`   `Nearest town`     State Latitude Longitude
##         <dbl> <chr>    <chr>         <chr>              <chr>    <dbl>     <dbl>
##  1      20812 Wind     23/11/1975 0~ SYDNEY             NSW      -33.9      151.
##  2      20813 Tornado  02/12/1975 1~ BARHAM             NSW      -35.6      144.
##  3      20814 Wind     09/01/1976 0~ COFF'S HARBOUR     NSW      -30.3      153.
##  4      20815 Hail     16/02/1976 1~ BANKSTOWN          NSW      -33.9      151.
##  5      20816 Rain     25/10/1976 1~ BOOMI              NSW      -28.4      153.
##  6      20817 Hail     08/11/1976 1~ YOUNG              NSW      -34.3      148.
##  7      20818 Hail     09/11/1976 1~ SYDNEY (WESTERN S~ NSW      -33.7      151 
##  8      20818 Rain     09/11/1976 1~ WESTERN SUBURBS    NSW      -33.7      151 
##  9      20819 Wind     09/11/1976 1~ SYDNEY             NSW      -33.9      151.
## 10      20820 Wind     10/11/1976 1~ MOREE/TRANGIE      NSW      -29.5      150.
## # ... with 14,407 more rows, and 4 more variables: AustralianTimeZone <chr>,
## #   UTCDateTime <dttm>, month_storm <dbl>, year_storm <dbl>
…
